conv_top.vcd
$date
	Sat Sep 13 23:01:44 2025
$end
$version
	Icarus Verilog
$end
$timescale
	1ps
$end
$scope module tb_conv_top $end
$var wire 1 ! conv_valid $end
$var wire 8 " conv_out [7:0] $end
$var reg 1 # clk $end
$var reg 8 $ pixel_in [7:0] $end
$var reg 1 % pixel_valid $end
$var reg 1 & rst $end
$var integer 32 ' fout [31:0] $end
$var integer 32 ( i [31:0] $end
$scope module uut $end
$var wire 1 # clk $end
$var wire 1 ! conv_valid $end
$var wire 8 ) pixel_in [7:0] $end
$var wire 1 % pixel_valid $end
$var wire 1 & rst $end
$var wire 1 * window_valid $end
$var wire 72 + window_out [71:0] $end
$var wire 8 , conv_out [7:0] $end
$scope module u_core $end
$var wire 72 - window_in [71:0] $end
$var reg 8 . conv_out [7:0] $end
$var integer 32 / i [31:0] $end
$upscope $end
$scope module u_line_buffer $end
$var wire 1 # clk $end
$var wire 8 0 pixel_in [7:0] $end
$var wire 1 % pixel_valid $end
$var wire 1 & rst $end
$var reg 72 1 window_out [71:0] $end
$var reg 1 * window_valid $end
$var integer 32 2 col [31:0] $end
$var integer 32 3 row [31:0] $end
$upscope $end
$upscope $end
$upscope $end
$enddefinitions $end
#0
$dumpvars
b0 3
b0 2
bx 1
b0 0
b1001 /
bx .
bx -
bx ,
bx +
0*
b0 )
bx (
bx '
1&
0%
b0 $
0#
bx "
0!
$end
#5000
1#
#10000
0#
b0 (
b10000000000000000000000000000011 '
0&
#15000
1%
b1 (
1#
#20000
0#
#25000
b1 2
b1 $
b1 )
b1 0
b10 (
1#
#30000
0#
#35000
b10 2
b10 $
b10 )
b10 0
b11 (
1#
#40000
0#
#45000
b11 2
b11 $
b11 )
b11 0
b100 (
1#
#50000
0#
#55000
b100 2
b100 $
b100 )
b100 0
b101 (
1#
#60000
0#
#65000
b101 2
b101 $
b101 )
b101 0
b110 (
1#
#70000
0#
#75000
b110 2
b110 $
b110 )
b110 0
b111 (
1#
#80000
0#
#85000
b111 2
b111 $
b111 )
b111 0
b1000 (
1#
#90000
0#
#95000
b1 3
b0 2
b1000 $
b1000 )
b1000 0
b1001 (
1#
#100000
0#
#105000
b1 2
b1001 $
b1001 )
b1001 0
b1010 (
1#
#110000
0#
#115000
b10 2
b1010 $
b1010 )
b1010 0
b1011 (
1#
#120000
0#
#125000
b11 2
b1011 $
b1011 )
b1011 0
b1100 (
1#
#130000
0#
#135000
b100 2
b1100 $
b1100 )
b1100 0
b1101 (
1#
#140000
0#
#145000
b101 2
b1101 $
b1101 )
b1101 0
b1110 (
1#
#150000
0#
#155000
b110 2
b1110 $
b1110 )
b1110 0
b1111 (
1#
#160000
0#
#165000
b111 2
b1111 $
b1111 )
b1111 0
b10000 (
1#
#170000
0#
#175000
b10 3
b0 2
b10000 $
b10000 )
b10000 0
b10001 (
1#
#180000
0#
#185000
b1 2
b10001 $
b10001 )
b10001 0
b10010 (
1#
#190000
0#
#195000
b10 2
b10010 $
b10010 )
b10010 0
b10011 (
1#
#200000
0#
#205000
b1001 /
b11101110 "
b11101110 ,
b11101110 .
b10000000100100000010000100000001000100001010000100100001001000010010 +
b10000000100100000010000100000001000100001010000100100001001000010010 -
b10000000100100000010000100000001000100001010000100100001001000010010 1
1!
1*
b11 2
b10011 $
b10011 )
b10011 0
b10100 (
1#
#210000
0#
#215000
b1001 /
b11101110 "
b11101110 ,
b11101110 .
b10010000101000000011000100010001001000001011000100110001001100010011 +
b10010000101000000011000100010001001000001011000100110001001100010011 -
b10010000101000000011000100010001001000001011000100110001001100010011 1
b100 2
b10100 $
b10100 )
b10100 0
b10101 (
1#
#220000
0#
#225000
b1001 /
b11101110 "
b11101110 ,
b11101110 .
b10100000101100000100000100100001001100001100000101000001010000010100 +
b10100000101100000100000100100001001100001100000101000001010000010100 -
b10100000101100000100000100100001001100001100000101000001010000010100 1
b101 2
b10101 $
b10101 )
b10101 0
b10110 (
1#
#230000
0#
#235000
b1001 /
b11101110 "
b11101110 ,
b11101110 .
b10110000110000000101000100110001010000001101000101010001010100010101 +
b10110000110000000101000100110001010000001101000101010001010100010101 -
b10110000110000000101000100110001010000001101000101010001010100010101 1
b110 2
b10110 $
b10110 )
b10110 0
b10111 (
1#
#240000
0#
#245000
b1001 /
b11101110 "
b11101110 ,
b11101110 .
b11000000110100000110000101000001010100001110000101100001011000010110 +
b11000000110100000110000101000001010100001110000101100001011000010110 -
b11000000110100000110000101000001010100001110000101100001011000010110 1
b111 2
b10111 $
b10111 )
b10111 0
b11000 (
1#
#250000
0#
#255000
b1001 /
b11101110 "
b11101110 ,
b11101110 .
b11010000111000000111000101010001011000001111000101110001011100010111 +
b11010000111000000111000101010001011000001111000101110001011100010111 -
b11010000111000000111000101010001011000001111000101110001011100010111 1
b11 3
b0 2
b11000 $
b11000 )
b11000 0
b11001 (
1#
#260000
0#
#265000
0!
0*
b1 2
b11001 $
b11001 )
b11001 0
b11010 (
1#
#270000
0#
#275000
b10 2
b11010 $
b11010 )
b11010 0
b11011 (
1#
#280000
0#
#285000
b1001 /
b11101110 "
b11101110 ,
b11101110 .
b100000001000100001010000110000001100100010010000110100001101000011010 +
b100000001000100001010000110000001100100010010000110100001101000011010 -
b100000001000100001010000110000001100100010010000110100001101000011010 1
1!
1*
b11 2
b11011 $
b11011 )
b11011 0
b11100 (
1#
#290000
0#
#295000
b1001 /
b11101110 "
b11101110 ,
b11101110 .
b100010001001000001011000110010001101000010011000110110001101100011011 +
b100010001001000001011000110010001101000010011000110110001101100011011 -
b100010001001000001011000110010001101000010011000110110001101100011011 1
b100 2
b11100 $
b11100 )
b11100 0
b11101 (
1#
#300000
0#
#305000
b1001 /
b11101110 "
b11101110 ,
b11101110 .
b100100001001100001100000110100001101100010100000111000001110000011100 +
b100100001001100001100000110100001101100010100000111000001110000011100 -
b100100001001100001100000110100001101100010100000111000001110000011100 1
b101 2
b11101 $
b11101 )
b11101 0
b11110 (
1#
#310000
0#
#315000
b1001 /
b11101110 "
b11101110 ,
b11101110 .
b100110001010000001101000110110001110000010101000111010001110100011101 +
b100110001010000001101000110110001110000010101000111010001110100011101 -
b100110001010000001101000110110001110000010101000111010001110100011101 1
b110 2
b11110 $
b11110 )
b11110 0
b11111 (
1#
#320000
0#
#325000
b1001 /
b11101110 "
b11101110 ,
b11101110 .
b101000001010100001110000111000001110100010110000111100001111000011110 +
b101000001010100001110000111000001110100010110000111100001111000011110 -
b101000001010100001110000111000001110100010110000111100001111000011110 1
b111 2
b11111 $
b11111 )
b11111 0
b100000 (
1#
#330000
0#
#335000
b1001 /
b11101110 "
b11101110 ,
b11101110 .
b101010001011000001111000111010001111000010111000111110001111100011111 +
b101010001011000001111000111010001111000010111000111110001111100011111 -
b101010001011000001111000111010001111000010111000111110001111100011111 1
b100 3
b0 2
b100000 $
b100000 )
b100000 0
b100001 (
1#
#340000
0#
#345000
0!
0*
b1 2
b100001 $
b100001 )
b100001 0
b100010 (
1#
#350000
0#
#355000
b10 2
b100010 $
b100010 )
b100010 0
b100011 (
1#
#360000
0#
#365000
b1001 /
b11101110 "
b11101110 ,
b11101110 .
b110000001100100010010001000000010000100011010001000100010001000100010 +
b110000001100100010010001000000010000100011010001000100010001000100010 -
b110000001100100010010001000000010000100011010001000100010001000100010 1
1!
1*
b11 2
b100011 $
b100011 )
b100011 0
b100100 (
1#
#370000
0#
#375000
b1001 /
b11101110 "
b11101110 ,
b11101110 .
b110010001101000010011001000010010001000011011001000110010001100100011 +
b110010001101000010011001000010010001000011011001000110010001100100011 -
b110010001101000010011001000010010001000011011001000110010001100100011 1
b100 2
b100100 $
b100100 )
b100100 0
b100101 (
1#
#380000
0#
#385000
b1001 /
b11101110 "
b11101110 ,
b11101110 .
b110100001101100010100001000100010001100011100001001000010010000100100 +
b110100001101100010100001000100010001100011100001001000010010000100100 -
b110100001101100010100001000100010001100011100001001000010010000100100 1
b101 2
b100101 $
b100101 )
b100101 0
b100110 (
1#
#390000
0#
#395000
b1001 /
b11101110 "
b11101110 ,
b11101110 .
b110110001110000010101001000110010010000011101001001010010010100100101 +
b110110001110000010101001000110010010000011101001001010010010100100101 -
b110110001110000010101001000110010010000011101001001010010010100100101 1
b110 2
b100110 $
b100110 )
b100110 0
b100111 (
1#
#400000
0#
#405000
b1001 /
b11101110 "
b11101110 ,
b11101110 .
b111000001110100010110001001000010010100011110001001100010011000100110 +
b111000001110100010110001001000010010100011110001001100010011000100110 -
b111000001110100010110001001000010010100011110001001100010011000100110 1
b111 2
b100111 $
b100111 )
b100111 0
b101000 (
1#
#410000
0#
#415000
b1001 /
b11101110 "
b11101110 ,
b11101110 .
b111010001111000010111001001010010011000011111001001110010011100100111 +
b111010001111000010111001001010010011000011111001001110010011100100111 -
b111010001111000010111001001010010011000011111001001110010011100100111 1
b101 3
b0 2
b101000 $
b101000 )
b101000 0
b101001 (
1#
#420000
0#
#425000
0!
0*
b1 2
b101001 $
b101001 )
b101001 0
b101010 (
1#
#430000
0#
#435000
b10 2
b101010 $
b101010 )
b101010 0
b101011 (
1#
#440000
0#
#445000
b1001 /
b11101110 "
b11101110 ,
b11101110 .
b1000000010000100011010001010000010100100100010001010100010101000101010 +
b1000000010000100011010001010000010100100100010001010100010101000101010 -
b1000000010000100011010001010000010100100100010001010100010101000101010 1
1!
1*
b11 2
b101011 $
b101011 )
b101011 0
b101100 (
1#
#450000
0#
#455000
b1001 /
b11101110 "
b11101110 ,
b11101110 .
b1000010010001000011011001010010010101000100011001010110010101100101011 +
b1000010010001000011011001010010010101000100011001010110010101100101011 -
b1000010010001000011011001010010010101000100011001010110010101100101011 1
b100 2
b101100 $
b101100 )
b101100 0
b101101 (
1#
#460000
0#
#465000
b1001 /
b11101110 "
b11101110 ,
b11101110 .
b1000100010001100011100001010100010101100100100001011000010110000101100 +
b1000100010001100011100001010100010101100100100001011000010110000101100 -
b1000100010001100011100001010100010101100100100001011000010110000101100 1
b101 2
b101101 $
b101101 )
b101101 0
b101110 (
1#
#470000
0#
#475000
b1001 /
b11101110 "
b11101110 ,
b11101110 .
b1000110010010000011101001010110010110000100101001011010010110100101101 +
b1000110010010000011101001010110010110000100101001011010010110100101101 -
b1000110010010000011101001010110010110000100101001011010010110100101101 1
b110 2
b101110 $
b101110 )
b101110 0
b101111 (
1#
#480000
0#
#485000
b1001 /
b11101110 "
b11101110 ,
b11101110 .
b1001000010010100011110001011000010110100100110001011100010111000101110 +
b1001000010010100011110001011000010110100100110001011100010111000101110 -
b1001000010010100011110001011000010110100100110001011100010111000101110 1
b111 2
b101111 $
b101111 )
b101111 0
b110000 (
1#
#490000
0#
#495000
b1001 /
b11101110 "
b11101110 ,
b11101110 .
b1001010010011000011111001011010010111000100111001011110010111100101111 +
b1001010010011000011111001011010010111000100111001011110010111100101111 -
b1001010010011000011111001011010010111000100111001011110010111100101111 1
b110 3
b0 2
b110000 $
b110000 )
b110000 0
b110001 (
1#
#500000
0#
#505000
0!
0*
b1 2
b110001 $
b110001 )
b110001 0
b110010 (
1#
#510000
0#
#515000
b10 2
b110010 $
b110010 )
b110010 0
b110011 (
1#
#520000
0#
#525000
b1001 /
b11101110 "
b11101110 ,
b11101110 .
b1010000010100100100010001100000011000100101010001100100011001000110010 +
b1010000010100100100010001100000011000100101010001100100011001000110010 -
b1010000010100100100010001100000011000100101010001100100011001000110010 1
1!
1*
b11 2
b110011 $
b110011 )
b110011 0
b110100 (
1#
#530000
0#
#535000
b1001 /
b11101110 "
b11101110 ,
b11101110 .
b1010010010101000100011001100010011001000101011001100110011001100110011 +
b1010010010101000100011001100010011001000101011001100110011001100110011 -
b1010010010101000100011001100010011001000101011001100110011001100110011 1
b100 2
b110100 $
b110100 )
b110100 0
b110101 (
1#
#540000
0#
#545000
b1001 /
b11101110 "
b11101110 ,
b11101110 .
b1010100010101100100100001100100011001100101100001101000011010000110100 +
b1010100010101100100100001100100011001100101100001101000011010000110100 -
b1010100010101100100100001100100011001100101100001101000011010000110100 1
b101 2
b110101 $
b110101 )
b110101 0
b110110 (
1#
#550000
0#
#555000
b1001 /
b11101110 "
b11101110 ,
b11101110 .
b1010110010110000100101001100110011010000101101001101010011010100110101 +
b1010110010110000100101001100110011010000101101001101010011010100110101 -
b1010110010110000100101001100110011010000101101001101010011010100110101 1
b110 2
b110110 $
b110110 )
b110110 0
b110111 (
1#
#560000
0#
#565000
b1001 /
b11101110 "
b11101110 ,
b11101110 .
b1011000010110100100110001101000011010100101110001101100011011000110110 +
b1011000010110100100110001101000011010100101110001101100011011000110110 -
b1011000010110100100110001101000011010100101110001101100011011000110110 1
b111 2
b110111 $
b110111 )
b110111 0
b111000 (
1#
#570000
0#
#575000
b1001 /
b11101110 "
b11101110 ,
b11101110 .
b1011010010111000100111001101010011011000101111001101110011011100110111 +
b1011010010111000100111001101010011011000101111001101110011011100110111 -
b1011010010111000100111001101010011011000101111001101110011011100110111 1
b111 3
b0 2
b111000 $
b111000 )
b111000 0
b111001 (
1#
#580000
0#
#585000
0!
0*
b1 2
b111001 $
b111001 )
b111001 0
b111010 (
1#
#590000
0#
#595000
b10 2
b111010 $
b111010 )
b111010 0
b111011 (
1#
#600000
0#
#605000
b1001 /
b11101110 "
b11101110 ,
b11101110 .
b1100000011000100101010001110000011100100110010001110100011101000111010 +
b1100000011000100101010001110000011100100110010001110100011101000111010 -
b1100000011000100101010001110000011100100110010001110100011101000111010 1
1!
1*
b11 2
b111011 $
b111011 )
b111011 0
b111100 (
1#
#610000
0#
#615000
b1001 /
b11101110 "
b11101110 ,
b11101110 .
b1100010011001000101011001110010011101000110011001110110011101100111011 +
b1100010011001000101011001110010011101000110011001110110011101100111011 -
b1100010011001000101011001110010011101000110011001110110011101100111011 1
b100 2
b111100 $
b111100 )
b111100 0
b111101 (
1#
#620000
0#
#625000
b1001 /
b11101110 "
b11101110 ,
b11101110 .
b1100100011001100101100001110100011101100110100001111000011110000111100 +
b1100100011001100101100001110100011101100110100001111000011110000111100 -
b1100100011001100101100001110100011101100110100001111000011110000111100 1
b101 2
b111101 $
b111101 )
b111101 0
b111110 (
1#
#630000
0#
#635000
b1001 /
b11101110 "
b11101110 ,
b11101110 .
b1100110011010000101101001110110011110000110101001111010011110100111101 +
b1100110011010000101101001110110011110000110101001111010011110100111101 -
b1100110011010000101101001110110011110000110101001111010011110100111101 1
b110 2
b111110 $
b111110 )
b111110 0
b111111 (
1#
#640000
0#
#645000
b1001 /
b11101110 "
b11101110 ,
b11101110 .
b1101000011010100101110001111000011110100110110001111100011111000111110 +
b1101000011010100101110001111000011110100110110001111100011111000111110 -
b1101000011010100101110001111000011110100110110001111100011111000111110 1
b111 2
b111111 $
b111111 )
b111111 0
b1000000 (
1#
#650000
0#
#655000
b1001 /
b11101110 "
b11101110 ,
b11101110 .
b1101010011011000101111001111010011111000110111001111110011111100111111 +
b1101010011011000101111001111010011111000110111001111110011111100111111 -
b1101010011011000101111001111010011111000110111001111110011111100111111 1
b1000 3
b0 2
0%
1#
